Division,WeightClassKg,Place,Name,Team,BodyweightKg,Best3SquatKg,Best3BenchKg,Best3DeadliftKg,TotalKg,Equipment,Event,Sex
Boys,51.71,1,Jose Sanchez,Gilmer,50.71,181.44,90.72,174.63,446.79,Single-ply,SBD,M
Boys,51.71,2,Angel Barrosso,Tyler Chapel Hill,51.07,142.88,92.99,149.69,385.55,Single-ply,SBD,M
Boys,51.71,3,Felix Espinoza,Crandall,50.62,145.15,83.91,142.88,371.95,Single-ply,SBD,M
Boys,51.71,4,Deuntre Adamson,Paris,50.89,142.88,77.11,151.95,371.95,Single-ply,SBD,M
Boys,51.71,5,Tyce Johnson,Bullard,50.08,147.42,68.04,136.08,351.53,Single-ply,SBD,M
Boys,51.71,6,Jaden Brown,Paris North Lamar,51.48,142.88,65.77,142.88,351.53,Single-ply,SBD,M
Boys,51.71,7,Alan Landazuri,Quinlan Ford,50.8,104.33,79.38,136.08,319.78,Single-ply,SBD,M
Boys,51.71,8,Gayin Neidich,Fairfield,51.71,113.4,58.97,104.33,276.69,Single-ply,SBD,M
Boys,51.71,9,Steven Rachel,Ferris,50.8,88.45,54.43,113.4,256.28,Single-ply,SBD,M
Boys,51.71,DQ,Raul Rodriguez,Diboll,51.26,127.01,,,,Single-ply,SBD,M
Boys,51.71,DQ,Jose Lopez,Kaufman,48.08,,,,,Single-ply,SBD,M
Boys,51.71,DQ,Steven Cantu,Brownsboro,49.53,117.93,56.7,,,Single-ply,SBD,M
Boys,55.79,1,Eric Reaper,Tyler Chapel Hill,54.98,192.78,113.4,181.44,487.61,Single-ply,SBD,M
Boys,55.79,2,Landon Warren,Bullard,55.79,158.76,92.99,156.49,408.23,Single-ply,SBD,M
Boys,55.79,3,Blayce Lassiter,Paris North Lamar,55.61,170.1,65.77,145.15,381.02,Single-ply,SBD,M
Boys,55.79,4,Xavier Edwards,Texarkana Liberty-Eylau,54.79,158.76,88.45,124.74,371.95,Single-ply,SBD,M
Boys,55.79,5,AJ Polk,Fairfield,53.98,127.01,86.18,151.95,365.14,Single-ply,SBD,M
Boys,55.79,6,Jesus Barrientos,Brownsboro,54.25,127.01,81.65,156.49,365.14,Single-ply,SBD,M
Boys,55.79,7,Makai Reyes,Mabank,54.61,136.08,86.18,140.61,362.87,Single-ply,SBD,M
Boys,55.79,8,Shemar Garrett,Carthage,53.61,133.81,77.11,142.88,353.8,Single-ply,SBD,M
Boys,55.79,9,Aaron Godwin,Mabank,55.07,142.88,86.18,124.74,353.8,Single-ply,SBD,M
Boys,55.79,10,Cody Maxie,Atlanta,55.16,136.08,58.97,138.35,333.39,Single-ply,SBD,M
Boys,55.79,DQ,George Charcas,Canton,54.88,,,,,Single-ply,SBD,M
Boys,55.79,DQ,Keiotti Bray,Paris,55.79,195.04,113.4,,,Single-ply,SBD,M
Boys,59.87,1,Wesley Gage,Paris,59.33,179.17,99.79,188.24,467.2,Single-ply,SBD,M
Boys,59.87,2,Zaahid Abdullah,Waxahachie Life,59.06,172.37,102.06,185.97,460.4,Single-ply,SBD,M
Boys,59.87,3,Gavin Starks,Mabank,59.06,190.51,90.72,172.37,453.59,Single-ply,SBD,M
Boys,59.87,4,Tristan Larson,Tyler Chapel Hill,58.79,183.7,83.91,181.44,449.06,Single-ply,SBD,M
Boys,59.87,5,Roshabrius Garrett,Carthage,59.51,167.83,102.06,172.37,442.25,Single-ply,SBD,M
Boys,59.87,6,Austin Caldwell,Wills Point,58.79,163.29,95.25,174.63,433.18,Single-ply,SBD,M
Boys,59.87,7,Chance Massaro,Brownsboro,58.51,181.44,92.99,145.15,419.57,Single-ply,SBD,M
Boys,59.87,8,Colby Sheppard,Madisonville,59.87,151.95,77.11,170.1,399.16,Single-ply,SBD,M
Boys,59.87,9,Justin Villatoro,Palestine,58.33,147.42,83.91,147.42,378.75,Single-ply,SBD,M
Boys,59.87,10,Carl Shehane,Quinlan Ford,57.97,142.88,74.84,131.54,349.27,Single-ply,SBD,M
Boys,59.87,DQ,Desmond Walls,Madisonville,59.87,145.15,86.18,,,Single-ply,SBD,M
Boys,67.13,1,Damion Brown,Bullard,66.22,199.58,124.74,195.04,519.36,Single-ply,SBD,M
Boys,67.13,2,Garrett Davis,Quinlan Ford,65.05,204.12,120.2,185.97,510.29,Single-ply,SBD,M
Boys,67.13,3,Christian Garcia,Emory Rains,65.95,195.04,90.72,197.31,483.08,Single-ply,SBD,M
Boys,67.13,4,Austin Helton,Caddo Mills,66.86,181.44,104.33,185.97,471.74,Single-ply,SBD,M
Boys,67.13,5,Harley Sanders,Brownsboro,64.95,185.97,127.01,147.42,460.4,Single-ply,SBD,M
Boys,67.13,6,Lukas Enloe,Gilmer,65.77,179.17,106.59,165.56,451.32,Single-ply,SBD,M
Boys,67.13,7,Dalton Johnson,Atlanta,64.14,183.7,97.52,163.29,444.52,Single-ply,SBD,M
Boys,67.13,8,Aaron Carrillo,Quinlan Ford,66.32,163.29,99.79,176.9,439.98,Single-ply,SBD,M
Boys,67.13,9,Lucas Zepeda,Waxahachie Life,66.68,170.1,86.18,181.44,437.72,Single-ply,SBD,M
Boys,67.13,10,Bryce Evans,Paris North Lamar,66.04,163.29,97.52,172.37,433.18,Single-ply,SBD,M
Boys,67.13,11,Michael Rosales,Rusk,65.32,167.83,90.72,163.29,421.84,Single-ply,SBD,M
Boys,67.13,DQ,Jesus Mendez,Emory Rains,64.95,,,,,Single-ply,SBD,M
Boys,74.84,1,Jacob Nash,Atlanta,73.75,233.6,120.2,229.06,582.87,Single-ply,SBD,M
Boys,74.84,2,Bobby Posey,Brownsboro,73.75,226.8,124.74,208.65,560.19,Single-ply,SBD,M
Boys,74.84,3,Sean Collins,Gilmer,69.85,233.6,122.47,197.31,553.38,Single-ply,SBD,M
Boys,74.84,4,Jacob Jenkins #3,Caddo Mills,71.3,192.78,104.33,224.53,521.63,Single-ply,SBD,M
Boys,74.84,5,Carson Barber,Gilmer,73.48,201.85,106.59,213.19,521.63,Single-ply,SBD,M
Boys,74.84,6,Jose Bueno,Center,74.3,208.65,111.13,201.85,521.63,Single-ply,SBD,M
Boys,74.84,7,Latavian Hudson,Tyler Chapel Hill,74.39,174.63,124.74,192.78,492.15,Single-ply,SBD,M
Boys,74.84,8,Zane Anderson,Fairfield,73.39,192.78,106.59,181.44,480.81,Single-ply,SBD,M
Boys,74.84,9,Israel Enriquez,Rusk,72.76,195.04,99.79,181.44,476.27,Single-ply,SBD,M
Boys,74.84,10,Marcos Molina,Brownsboro,73.12,197.31,90.72,179.17,467.2,Single-ply,SBD,M
Boys,74.84,11,Luke Wellman,Brownsboro,69.76,183.7,102.06,170.1,455.86,Single-ply,SBD,M
Boys,74.84,12,Logan Moffitt,Crandall,72.48,170.1,106.59,167.83,444.52,Single-ply,SBD,M
Boys,82.1,1,Jansen Mattingly,Bullard,79.74,244.94,136.08,233.6,614.62,Single-ply,SBD,M
Boys,82.1,2,Jaxon Hevron,Paris North Lamar,80.74,244.94,145.15,222.26,612.35,Single-ply,SBD,M
Boys,82.1,3,Marcos Gallegos,Mabank,80.65,226.8,136.08,231.33,594.21,Single-ply,SBD,M
Boys,82.1,4,Zach Cooke,Henderson,81.47,219.99,140.61,222.26,582.87,Single-ply,SBD,M
Boys,82.1,5,Clayton Mosley,Atlanta,77.29,226.8,145.15,208.65,580.6,Single-ply,SBD,M
Boys,82.1,6,Armando Aguilar,Caddo Mills,81.83,226.8,129.27,217.72,573.79,Single-ply,SBD,M
Boys,82.1,7,Nick Butler,Caddo Mills,81.37,199.58,120.2,235.87,555.65,Single-ply,SBD,M
Boys,82.1,8,Reece Ricketts,Bullard,80.74,208.65,136.08,208.65,553.38,Single-ply,SBD,M
Boys,82.1,9,Byron Johnson #1,Rusk,80.83,206.38,122.47,217.72,546.58,Single-ply,SBD,M
Boys,82.1,10,Jalen Brooks,Carthage,79.29,204.12,111.13,226.8,542.04,Single-ply,SBD,M
Boys,82.1,11,Josh Hull,Wills Point,82.1,188.24,140.61,210.92,539.77,Single-ply,SBD,M
Boys,82.1,12,Jar-Mychael Hudson,Fairfield,78.93,204.12,92.99,204.12,501.22,Single-ply,SBD,M
Boys,89.81,1,Witt Dockens,Center,87.82,278.96,167.83,247.21,694,Single-ply,SBD,M
Boys,89.81,2,JaShaughn Hatcher,Fairfield,84.46,272.16,142.88,272.16,687.19,Single-ply,SBD,M
Boys,89.81,3,Vaughan Bufkin,Longview Spring Hill,88.72,229.06,138.35,229.06,596.47,Single-ply,SBD,M
Boys,89.81,4,Adrian Berry,Tyler Chapel Hill,86.55,213.19,142.88,226.8,582.87,Single-ply,SBD,M
Boys,89.81,5,Zee Barfoot,Atlanta,87,213.19,145.15,204.12,562.45,Single-ply,SBD,M
Boys,89.81,6,Preston Loggins,Huntington,88.27,231.33,117.93,213.19,562.45,Single-ply,SBD,M
Boys,89.81,7,Colt Cooper,Caddo Mills,84.01,195.04,117.93,190.51,503.49,Single-ply,SBD,M
Boys,89.81,8,Micheil Harrell,Madisonville,88.72,192.78,102.06,199.58,494.42,Single-ply,SBD,M
Boys,89.81,9,Layton House,Athens,87.63,204.12,113.4,174.63,492.15,Single-ply,SBD,M
Boys,89.81,10,Cameron Castles,Henderson,84.46,197.31,106.59,181.44,485.34,Single-ply,SBD,M
Boys,89.81,DQ,Brennan Singleton,Huntington,84.28,195.04,113.4,,,Single-ply,SBD,M
Boys,99.79,1,Chris Taylor,Caddo Mills,97.07,272.16,151.95,254.01,678.12,Single-ply,SBD,M
Boys,99.79,2,Corbin Rodriguez,Madisonville,93.17,254.01,158.76,244.94,657.71,Single-ply,SBD,M
Boys,99.79,3,Hunter Moore,Paris North Lamar,94.8,260.82,149.69,244.94,655.44,Single-ply,SBD,M
Boys,99.79,4,Justin Pate,Caddo Mills,91.63,242.67,136.08,247.21,625.96,Single-ply,SBD,M
Boys,99.79,5,Marquis Massenburg,Tyler Chapel Hill,94.71,240.4,149.69,235.87,625.96,Single-ply,SBD,M
Boys,99.79,6,Katavious Evans,Center,95.89,265.35,124.74,235.87,625.96,Single-ply,SBD,M
Boys,99.79,7,Keagan Richardson,Mabank,93.08,233.6,151.95,217.72,603.28,Single-ply,SBD,M
Boys,99.79,8,Coltin Paskey,Tyler Chapel Hill,97.25,238.14,151.95,206.38,596.47,Single-ply,SBD,M
Boys,99.79,9,Justin Sander,Fairfield,94.35,244.94,136.08,204.12,585.13,Single-ply,SBD,M
Boys,99.79,10,Bryan Harwell,Waxahachie Life,94.53,231.33,124.74,229.06,585.13,Single-ply,SBD,M
Boys,99.79,11,Cole Seamon,Diboll,98.43,238.14,142.88,195.04,576.06,Single-ply,SBD,M
Boys,99.79,12,Brett Harrington,Caddo Mills,92.44,217.72,127.01,215.46,560.19,Single-ply,SBD,M
Boys,109.77,1,Deonundre Hatton,Palestine,108.23,240.4,174.63,238.14,653.17,Single-ply,SBD,M
Boys,109.77,2,Jacob McCain,Caddo Mills,107.68,242.67,129.27,231.33,603.28,Single-ply,SBD,M
Boys,109.77,3,Anthony Villanueva,Pittsburg,108.41,204.12,165.56,226.8,596.47,Single-ply,SBD,M
Boys,109.77,4,Logan Holloway,Center,107.59,229.06,147.42,213.19,589.67,Single-ply,SBD,M
Boys,109.77,5,Tyrell King,Atlanta,103.15,219.99,138.35,226.8,585.13,Single-ply,SBD,M
Boys,109.77,6,Juan Martinez,Wills Point,105.6,226.8,120.2,238.14,585.13,Single-ply,SBD,M
Boys,109.77,7,Montana Booker,Kaufman,109.41,244.94,117.93,215.46,578.33,Single-ply,SBD,M
Boys,109.77,8,Drew Williams,Fairfield,100.52,240.4,127.01,204.12,571.53,Single-ply,SBD,M
Boys,109.77,9,Quin Dangerfield,Paris,108.5,213.19,145.15,206.38,564.72,Single-ply,SBD,M
Boys,109.77,10,Matthew Bryant,Quinlan Ford,107.95,231.33,124.74,201.85,557.92,Single-ply,SBD,M
Boys,109.77,11,William Cotton,Quinlan Ford,104.33,204.12,113.4,231.33,548.85,Single-ply,SBD,M
Boys,109.77,12,Cade Fant,Atlanta,100.43,210.92,127.01,206.38,544.31,Single-ply,SBD,M
Boys,109.77,13,Tyler Menard,Caddo Mills,108.41,197.31,129.27,206.38,532.97,Single-ply,SBD,M
Boys,124.74,1,Garrett Hayes,Athens,118.3,272.16,156.49,290.3,718.94,Single-ply,SBD,M
Boys,124.74,2,Kolt Stephens,Mabank,123.47,285.76,174.63,242.67,703.07,Single-ply,SBD,M
Boys,124.74,3,Jermaine Lewis,Rusk,117.93,283.5,138.35,260.82,682.66,Single-ply,SBD,M
Boys,124.74,4,Joey Haley,Paris North Lamar,122.11,256.28,140.61,265.35,662.24,Single-ply,SBD,M
Boys,124.74,5,LaDarius Price,Fairfield,113.58,272.16,145.15,231.33,648.64,Single-ply,SBD,M
Boys,124.74,6,Caleb York,Van,117.03,256.28,154.22,226.8,637.3,Single-ply,SBD,M
Boys,124.74,7,Leo Figueroa,Ferris,122.02,272.16,156.49,201.85,630.49,Single-ply,SBD,M
Boys,124.74,8,Carson Manassee,Longview Spring Hill,117.57,233.6,136.08,238.14,607.81,Single-ply,SBD,M
Boys,124.74,9,Tanner Cornell,Longview Spring Hill,115.12,238.14,156.49,204.12,598.74,Single-ply,SBD,M
Boys,124.74,10,Shelby Wilder,Waxahachie Life,110.4,231.33,138.35,226.8,596.47,Single-ply,SBD,M
Boys,124.74,11,Coty Neugin,Crandall,122.56,251.74,138.35,201.85,591.94,Single-ply,SBD,M
Boys,124.74,12,Reuel Barrett,Waxahachie Life,118.57,231.33,142.88,206.38,580.6,Single-ply,SBD,M
Boys,124.74,13,Francisco Martinez,Atlanta,115.76,238.14,111.13,226.8,576.06,Single-ply,SBD,M
Boys,124.74+,1,Matt Kelley,Caddo Mills,140.16,358.34,176.9,254.01,789.25,Single-ply,SBD,M
Boys,124.74+,2,Devon King,Gilmer,143.79,294.84,172.37,265.35,732.55,Single-ply,SBD,M
Boys,124.74+,3,John Campbell,Bullard,140.16,317.51,172.37,217.72,707.6,Single-ply,SBD,M
Boys,124.74+,4,Dakota Smith,Canton,150.59,303.91,172.37,226.8,703.07,Single-ply,SBD,M
Boys,124.74+,5,Jesus Garcia-Castillo,Palestine,168.46,306.17,158.76,238.14,703.07,Single-ply,SBD,M
Boys,124.74+,6,Dejaun Ealy,Palestine,136.44,294.84,192.78,192.78,680.39,Single-ply,SBD,M
Boys,124.74+,7,Eddie Zuniga,Waxahachie Life,137.57,272.16,167.83,201.85,641.83,Single-ply,SBD,M
Boys,124.74+,8,Blake Olivares,Gilmer,129.73,260.82,158.76,215.46,635.03,Single-ply,SBD,M
Boys,124.74+,9,Dustin Williams,Atlanta,142.52,242.67,172.37,215.46,630.49,Single-ply,SBD,M
Boys,124.74+,10,Elian Perea,Kaufman,132.18,258.55,142.88,226.8,628.23,Single-ply,SBD,M
Boys,124.74+,11,Colton Deal,Waxahachie Life,143.7,249.48,136.08,222.26,607.81,Single-ply,SBD,M
Boys,124.74+,12,Joey McIver,Madisonville,141.97,242.67,149.69,199.58,591.94,Single-ply,SBD,M
