Name,BodyweightKg,State,Best3SquatKg,Best3BenchKg,Best3DeadliftKg,TotalKg,Sex,Division,WeightClassKg,Equipment,Event,Deadlift4Kg,Bench4Kg,Place
Grace Ne Castro,55.16,OH,124.74,54.43,117.93,297.1,F,Teenage 16-17,56,Wraps,SBD,,,1
Joy Lyon,62.51,TN,108.86,58.97,117.93,285.76,F,Teenage 16-17,67.5,Wraps,SBD,,,1
Amanda Bell,99.34,NC,142.88,68.04,151.95,362.87,F,Teenage 16-17,90+,Wraps,SBD,,,1
Corinne Schmidth,55.07,TN,88.45,56.7,95.25,240.4,F,Teenage 18-19,56,Wraps,SBD,,,1
Sara Goodson,57.79,TN,111.13,68.04,140.61,319.78,F,Juniors,60,Wraps,SBD,,,1
Riki Templeton,51.71,TN,92.99,52.16,106.59,251.74,F,Open,52,Wraps,SBD,,,1
Grace Ne Castro,55.16,OH,124.74,54.43,117.93,297.1,F,Open,56,Wraps,SBD,,,1
Stephanie Diliegro,59.87,NC,108.86,58.97,142.88,310.71,F,Open,60,Wraps,SBD,,,1
Emily Drew Mash,59.87,NC,111.13,63.5,136.08,310.71,F,Open,60,Wraps,SBD,,,2
Lisa Gniewek,70.31,NC,81.65,40.82,111.13,233.6,F,Open,75,Wraps,SBD,,,1
Lisa Gniewek,70.31,NC,81.65,40.82,111.13,233.6,F,Masters 40-44,75,Wraps,SBD,,,1
Christian Blackmon,57.15,AL,99.79,54.43,117.93,272.16,M,Teenage 13-15,60,Wraps,SBD,,,1
Jason Mace,87.63,NC,149.69,92.99,158.76,401.43,M,Teenage 13-15,90,Wraps,SBD,,,1
Nic Kemper,95.89,KY,213.19,124.74,210.92,548.85,M,Teenage 13-15,100,Wraps,SBD,,,1
Raymond Bell #3,65.86,NC,136.08,68.04,140.61,344.73,M,Teenage 13-15,67.5,Wraps,SBD,,,1
Mathew Kamisol,65.86,NC,161.03,81.65,158.76,401.43,M,Teenage 16-17,67.5,Wraps,SBD,,,1
Chase McDaniel,74.8,KY,219.99,131.54,208.65,560.19,M,Teenage 16-17,75,Wraps,SBD,,,1
Andrew Koontz,73.84,SC,149.69,86.18,183.7,419.57,M,Teenage 16-17,75,Wraps,SBD,,,2
Caleb Tilson,88.72,NC,181.44,106.59,240.4,528.44,M,Teenage 18-19,90,Wraps,SBD,,,1
Quinn Manolis,126.1,GA,274.42,170.1,240.4,684.92,M,Teenage 18-19,140,Wraps,SBD,,,1
Jonah Smith,59.78,TN,111.13,83.91,136.08,331.12,M,Teenage 16-17,60,Single-ply,SBD,,,1
Sarah Kapoor,53.52,TN,129.27,70.31,129.27,328.85,F,Teenage 18-19,56,Single-ply,SBD,,,1
Amy Munsterman,63.68,AL,158.76,79.38,140.61,378.75,F,Open,67.5,Single-ply,SBD,,,1
Chase Wooldridge,59.78,IN,136.08,79.38,147.42,362.87,M,Teenage 16-17,60,Single-ply,SBD,,,1
Jacob Epling,80.29,MI,254.01,149.69,242.67,646.37,M,Teenage 16-17,82.5,Multi-ply,SBD,,,1
Melton Cancino,85.28,TN,272.16,158.76,233.6,664.51,M,Teenage 18-19,90,Multi-ply,SBD,,,1
Katie Menzer,55.79,TX,108.86,77.11,122.47,308.44,F,Open,56,Multi-ply,SBD,,,1
Bianca Stone,64.14,OH,195.04,138.35,183.7,517.1,F,Open,67.5,Multi-ply,SBD,,,1
Jasmine Todd,81.65,NC,204.12,154.22,192.78,551.11,F,Open,82.5,Multi-ply,SBD,,,1
Brandon Jarnagin,85.91,TN,,127.01,195.04,322.05,M,Teenage 18-19,90,Raw,BD,,,1
Nelda Newton,58.79,NC,,47.63,117.93,165.56,F,Masters 45-49,60,Raw,BD,,,1
Joy Lyon,62.41,TN,,58.97,,58.97,F,Teenage 16-17,67.5,Raw,B,,,1
John Chait,91.26,TN,,102.06,,102.06,M,Teenage 13-15,100,Raw,B,,,1
Michael Chait,79.56,TN,,115.67,,115.67,M,Teenage 16-17,82.5,Raw,B,,,1
Laura Phelps-Sweatt,75.48,OH,,233.6,,233.6,F,Open,82.5,Multi-ply,B,,,1
Joy Lyon,62.41,TN,108.86,,,108.86,F,Teenage 16-17,67.5,Wraps,S,,,1
Joy Lyon,62.41,TN,,,117.93,117.93,F,Teenage 16-17,67.5,Raw,D,,,1
Chase McDaniel,74.8,KY,219.99,,,219.99,M,Teenage 16-17,75,Wraps,S,,,1
Mathew Miles,66.68,TN,181.44,127.01,224.53,532.97,M,Juniors,67.5,Wraps,SBD,,,1
Luke Starnes,65.77,OH,,,,,M,Juniors,67.5,Wraps,SBD,,,DQ
Robert Kemisol,89.27,NC,229.06,156.49,192.78,578.33,M,Juniors,90,Wraps,SBD,,,1
Jordan Moffitt,,,,,,,M,Juniors,90,Wraps,SBD,,,DQ
Mitchell Trugot,66.22,TN,170.1,97.52,192.78,460.4,M,Open,67.5,Wraps,SBD,,,1
Tony DiLiegro,74.84,NC,199.58,158.76,235.87,594.21,M,Open,75,Wraps,SBD,,,1
Charlie Conner,80.74,TN,272.16,167.83,272.16,712.14,M,Open,82.5,Wraps,SBD,,,1
Josh Sato,80.74,KY,195.04,145.15,272.16,612.35,M,Open,82.5,Wraps,SBD,,,2
Fred Blaylock,,,,,,,M,Open,82.5,Wraps,SBD,,,DQ
Jared Brown #2,80.65,KY,170.1,120.2,206.38,496.68,M,Open,82.5,Wraps,SBD,,,3
Greg Crook,84.01,NC,254.01,170.1,249.48,673.58,M,Open,90,Wraps,SBD,,,1
Robert Hensel,89.72,FL,263.08,158.76,226.8,648.64,M,Open,90,Wraps,SBD,,,2
Jacob Gieseike,86.27,KY,206.38,131.54,260.82,598.74,M,Open,90,Wraps,SBD,,,3
John Petruzzi,86.73,VA,,,,,M,Open,90,Wraps,SBD,,,DQ
Jonathan Couick,89.54,NC,242.67,161.03,272.16,675.85,M,Submasters,90,Wraps,SBD,,,1
David Crarter,96.71,NC,185.97,158.76,215.46,560.19,M,Submasters,100,Wraps,SBD,,,1
Larry Goodwin,88.72,AL,136.08,113.4,179.17,428.64,M,Masters 40-44,90,Wraps,SBD,,,1
Jon Heisinger,,,,,,,M,Masters 40-44,100,Wraps,SBD,,,DQ
Paul Leopard,79.11,AL,140.61,104.33,163.29,408.23,M,Masters 45-49,82.5,Wraps,SBD,,,1
Barry Holt,95.25,NC,195.04,120.2,233.6,548.85,M,Masters 45-49,100,Wraps,SBD,242.67,,1
Jimmy Ross,74.48,GA,117.93,90.72,163.29,371.95,M,Masters 65-69,75,Wraps,SBD,167.83,,1
Paul Leopard,79.11,AL,140.61,,,140.61,M,Masters 45-49,82.5,Wraps,S,,,1
Jimmy Ross,74.48,GA,117.93,,,117.93,M,Masters 65-69,75,Wraps,S,,,1
Paul Leopard,79.11,AL,,104.33,,104.33,M,Masters 45-49,82.5,Raw,B,,,1
Jimmy Ross,74.48,GA,,90.72,,90.72,M,Masters 65-69,75,Raw,B,,,1
Paul Leopard,79.11,AL,,,163.29,163.29,M,Masters 45-49,82.5,Raw,D,,,1
Jimmy Ross,74.53,GA,,,163.29,163.29,M,Masters 65-69,75,Raw,D,167.83,,1
Jimmy Ross,74.48,GA,,90.72,163.29,254.01,M,Masters 65-69,75,Raw,BD,167.83,,1
Alek Esebedo,109.59,IN,292.57,195.04,260.82,748.43,M,Juniors,110,Single-ply,SBD,,,1
Cameron Fields,83.46,GA,204.12,158.76,215.46,578.33,M,Open,90,Single-ply,SBD,,,1
Michael Cochran,59.87,AL,161.03,133.81,181.44,476.27,M,Masters 40-44,60,Single-ply,SBD,,,1
Camereon Fields,88,GA,204.12,,,204.12,M,Open,90,Single-ply,S,,,1
Mathew York,82.1,TN,278.96,208.65,226.8,714.41,M,Juniors,82.5,Multi-ply,SBD,,,1
Garrett Huffman,80.83,NC,365.14,251.74,249.48,866.36,M,Open,82.5,Multi-ply,SBD,,,1
Marty Bavetz,,,,,,,M,Open,82.5,Multi-ply,SBD,,,DQ
Jason Coker,89.81,TX,408.23,365.14,249.48,1022.85,M,Open,90,Multi-ply,SBD,,,1
Jeffery Baker,88,TN,260.82,149.69,263.08,673.58,M,Open,90,Multi-ply,SBD,,,2
Brian Hill,99.79,NC,378.75,215.46,269.89,864.09,M,Open,100,Multi-ply,SBD,,,1
Mark Steel,99.79,TN,,,,,M,Open,100,Multi-ply,SBD,,,DQ
Joe Jester,99.61,OH,,,,,M,Open,100,Multi-ply,SBD,,,DQ
Michael Rainey,99.79,GA,283.5,208.65,278.96,771.11,M,Submasters,100,Multi-ply,SBD,,,1
Mark Steel,99.79,TN,,,,,M,Police and Fire,100,Multi-ply,SBD,,,DQ
Mark Steel,99.79,TN,,,,,M,Masters 40-44,100,Multi-ply,SBD,,,DQ
Joey Edwards,,,,,,,M,Masters 40-44,100,Multi-ply,SBD,,,DQ
Adam Wade,98.43,GA,,,,,M,Masters 45-49,100,Multi-ply,SBD,,,DQ
Ron Blackmon,89.81,SC,226.8,226.8,226.8,680.39,M,Masters 65-69,90,Multi-ply,SBD,,,1
Terry Lancaster,,,,,,,M,Masters 65-69,90,Multi-ply,SBD,,,DQ
Sam Chapala,86.73,IN,,136.08,136.08,272.16,M,Open,90,Single-ply,BD,,,1
Wayne Stover,85.28,TN,,142.88,229.06,371.95,M,Masters 40-44,90,Multi-ply,BD,,,1
Chase Stratton,89.63,MO,,183.7,,183.7,M,Juniors,90,Raw,B,,,1
Paul Howard,74.21,KY,,183.7,,183.7,M,Open,75,Raw,B,,,1
Darren Nelson,79.2,TN,,127.01,,127.01,M,Open,82.5,Raw,B,,,1
Tony Harris,80.83,TN,,102.06,,102.06,M,Open,82.5,Raw,B,,,2
Anthony Evans,89.36,GA,,195.04,,195.04,M,Open,90,Raw,B,,,1
Chase Stratton,89.63,MO,,183.7,,183.7,M,Open,90,Raw,B,,,2
Jason Rovey,,,,,,,M,Open,100,Raw,B,,,DQ
Matt Millsaps,,,,,,,M,Open,100,Raw,B,,,DQ
Jason Rovey,,,,,,,M,Submasters,100,Raw,B,,,DQ
Joseph Sneed,,,,,,,M,Masters 40-44,82.5,Raw,B,,,DQ
Barry Williams,96.52,NC,,226.8,,226.8,M,Masters 40-44,100,Raw,B,,,1
Robert Maluso,99.79,TN,,158.76,,158.76,M,Masters 40-44,100,Raw,B,,,2
Tim Metcalf,74.12,NC,,111.13,,111.13,M,Masters 50-54,75,Raw,B,,,1
Robert Kemisol,89.27,NC,,165.56,,165.56,M,Juniors,90,Single-ply,B,,172.37,1
Chris Flowers,74.21,IN,,190.51,,190.51,M,Masters 45-49,75,Single-ply,B,,,1
Bob Bassman,98.25,TX,,161.03,,161.03,M,Masters 70-74,100,Single-ply,B,,,1
Josh Price,54.88,TN,,145.15,,145.15,M,Open,56,Multi-ply,B,,149.69,1
Jason Coker,89.81,TX,,365.14,,365.14,M,Open,90,Multi-ply,B,,,1
Lee Lichtle,81.1,FL,,154.22,,154.22,M,Police and Fire,82.5,Multi-ply,B,,,1
Lee Lichtle,81.1,FL,,154.22,,154.22,M,Masters 65-69,82.5,Multi-ply,B,,,1
Ron Blackmon,89.81,SC,,226.8,,226.8,M,Masters 65-69,90,Multi-ply,B,,,1
Josh Love,84.64,VA,,,163.29,163.29,M,Open,90,Raw,D,,,1
Tim Metcalf,74.12,NC,,,147.42,147.42,M,Masters 50-54,75,Raw,D,,,1
Aaron Smith,99.34,GA,,,204.12,204.12,M,Open,100,Single-ply,D,,,1
Don Millrany,99.61,TN,,,263.08,263.08,M,Submasters,100,Single-ply,D,,,1
Rob Hanners,74.39,VA,,,276.69,276.69,M,Open,75,Multi-ply,D,283.5,,1
Justin Bethune,109.77,GA,260.82,183.7,285.76,730.28,M,Juniors,110,Wraps,SBD,,,1
Josh Millwood,123.1,AL,235.87,151.95,272.16,659.98,M,Juniors,125,Wraps,SBD,,,1
Dean Stokes,107.37,OH,306.17,226.8,322.05,855.02,M,Open,110,Wraps,SBD,,,1
Ronald Henderson,114.76,TN,226.8,158.76,226.8,612.35,M,Open,118,Wraps,SBD,,,1
Heath Garrett,123.65,AL,306.17,183.7,328.85,818.73,M,Open,125,Wraps,SBD,,,1
Michael Schultz,138.35,AL,328.85,226.8,319.78,875.43,M,Open,140,Wraps,SBD,,,1
Thomas Dillard,165.92,VA,317.51,233.6,317.51,868.63,M,Open,140+,Wraps,SBD,,,1
Ronald Henderson,114.76,TN,226.8,158.76,226.8,612.35,M,Submasters,118,Wraps,SBD,,,1
Allen Underwood,108.86,NC,251.74,195.04,258.55,705.34,M,Masters 40-44,110,Wraps,SBD,,,1
Nathan Holt,122.65,TX,317.51,174.63,290.3,782.45,M,Open,125,Single-ply,SBD,,,1
Jonathan Byrd,134.54,NC,369.68,303.91,310.71,984.3,M,Open,140,Single-ply,SBD,,,1
Joe Wooldridge,101.15,IN,254.01,192.78,229.06,675.85,M,Masters 40-44,110,Single-ply,SBD,,,1
Jeff Breisch,122.02,SC,374.21,238.14,306.17,918.52,M,Juniors,125,Multi-ply,SBD,,,1
Matthew Christie,109.68,GA,433.18,306.17,294.84,1034.19,M,Open,110,Multi-ply,SBD,,,1
Patrick Maupin,107.5,KY,390.09,308.44,333.39,1031.92,M,Open,110,Multi-ply,SBD,,,2
Devin Young,104.33,TN,272.16,149.69,235.87,657.71,M,Open,110,Multi-ply,SBD,,,3
Glenn Baggett,109.77,GA,399.16,,,,M,Open,110,Multi-ply,SBD,,,DQ
Mike Wood,118.75,GA,,,,,M,Open,125,Multi-ply,SBD,,,DQ
AJ Roberts,137.53,OH,503.49,408.23,349.27,1260.99,M,Open,140,Multi-ply,SBD,,,1
Dave Hoff,125.74,OH,469.47,415.04,351.53,1236.04,M,Open,140,Multi-ply,SBD,,,2
Curt Porter,129.82,TN,417.3,256.28,344.73,1018.31,M,Open,140,Multi-ply,SBD,,,3
Jack Kottwitz,158.76,AL,430.91,344.73,242.67,1018.31,M,Open,140+,Multi-ply,SBD,,,1
Tony Bolognone,148.96,OH,505.76,,,,M,Open,140+,Multi-ply,SBD,,,DQ
Jim Grandick,122.83,NE,462.66,349.27,333.39,1145.32,M,Masters 40-44,125,Multi-ply,SBD,,,1
Billy Mimnaugh,137.17,IN,,,,,M,Masters 45-49,140,Multi-ply,SBD,,,DQ
Tim Teal,139.07,AL,,,,,M,Masters 45-49,140,Multi-ply,SBD,,,DQ
James Robinson,123.83,KY,317.51,238.14,328.85,884.51,M,Masters 50-54,125,Multi-ply,SBD,,,1
Justin Bethune,109.77,GA,,183.7,285.76,469.47,M,Juniors,110,Raw,BD,,,1
John Pinder,109.41,SC,,167.83,306.17,474,M,Masters 50-54,110,Raw,BD,,,1
Jason Carter,148.42,TN,,265.35,283.5,548.85,M,Masters 40-44,140+,Single-ply,BD,,,1
Anthony Ford,109.77,AL,,226.8,,226.8,M,Police and Fire,110,Raw,B,,231.33,1
Paul Shoaf,136.08,AL,,151.95,,151.95,M,Police and Fire,140,Raw,B,,,1
Anthony Ford,109.77,AL,,226.8,,226.8,M,Masters 40-44,110,Raw,B,,231.33,1
Paul Shoaf,136.08,AL,,151.95,,151.95,M,Masters 45-49,140,Raw,B,,,1
John Bible,149.69,TN,,213.19,,213.19,M,Masters 50-54,140+,Raw,B,,,1
Gerald Lambdin,106.41,TN,,117.93,,117.93,M,Masters 70-74,110,Raw,B,,,1
Forest Holt,111.58,TX,,,,,M,Open,118,Single-ply,B,,,DQ
Mike Womack #1,157.03,TX,,362.87,,362.87,M,Open,140+,Single-ply,B,,,1
Jack Kottwitz,158.76,AL,,344.73,,344.73,M,Open,140+,Single-ply,B,,,2
Dana Farrow,105.69,GA,,,,,M,Submasters,110,Single-ply,B,,,DQ
Don Wright,109.04,GA,,249.48,,249.48,M,Masters 40-44,110,Single-ply,B,,,1
Tom Chapala,114.76,IN,,147.42,,147.42,M,Masters 70-74,118,Single-ply,B,,,1
Joey Smith,128.19,NC,,347,,347,M,Open,140,Multi-ply,B,,,1
Paul Lauffer,105.05,PA,,272.16,,272.16,M,Submasters,110,Multi-ply,B,,,1
Joey Smith,128.19,NC,,347,,347,M,Submasters,140,Multi-ply,B,,,1
Heath Garrett,123.65,AL,306.17,,,306.17,M,Open,125,Wraps,S,,,1
Heath Garrett,123.65,AL,,,328.85,328.85,M,Open,125,Raw,D,,,1
Mark Ferris,110.95,NC,,,272.16,272.16,M,Open,118,Raw,D,,,1
